2024-01-10 14-48-40 TC-032_1 TC-00001_Verify creating a new Tableau Connection
2024-01-10 14-48-40 Wait: 5000 milliseconds
2024-01-10 14-48-40 Open Menu: Menu opened successfully
2024-01-10 14-48-40 Clicking on Administrator Settings
2024-01-10 14-48-40 Clicking on Source Connection settings
2024-01-10 14-48-40 Clicking on body
2024-01-10 14-48-40 Adding details to creatte Test Connection
2024-01-10 14-48-40 Add report type for Tableau
2024-01-10 14-48-40 Wait: 5000 milliseconds
2024-01-10 14-48-40 Open Menu: Menu opened successfully
2024-01-10 14-48-40 Clicking on Administrator Settings
2024-01-10 14-48-40 Clicking on Report type testing
2024-01-10 14-48-40 Clicking on page body
2024-01-10 14-48-40 Typing "Tableau" in the search field for report types
2024-01-10 14-48-40 Clicking on edit row
2024-01-10 14-48-40 Wait: 1500 milliseconds
2024-01-10 14-48-40 Editing launch URL and thumbnail URL for Report Type
2024-01-10 14-48-40 Add report type for Tableau
2024-01-10 14-48-40 Wait: 5000 milliseconds
2024-01-10 14-48-40 Open Menu: Menu opened successfully
2024-01-10 14-48-40 Clicking on Administrator Settings
2024-01-10 14-48-40 Clicking on Report type testing
2024-01-10 14-48-40 Clicking on page body
2024-01-10 14-48-40 Typing "Tableau" in the search field for report types
2024-01-10 14-48-40 Clicking on edit row
2024-01-10 14-48-40 Wait: 1500 milliseconds
2024-01-10 14-48-40 Editing launch URL and thumbnail URL for Report Type
2024-01-10 14-48-40 TC-0001_Run Complete Tableau Connection
2024-01-10 14-48-40 Wait: 5000 milliseconds
2024-01-10 14-48-40 Open Menu: Menu opened successfully
2024-01-10 14-48-40 Clicking on Administrator Settings
2024-01-10 14-48-40 Clicking on Source Connection settings
2024-01-10 14-48-40 Clicking on body
2024-01-10 14-48-40 Clicking on the search connection icon
2024-01-10 14-48-40 Typing connection name in the search field: Tableau_C8
2024-01-10 14-48-40 Selecting the 4th table in the search results
2024-01-10 14-48-40 Initiating Tableau run by clicking on the Run Complete button
2024-01-10 14-48-40 Verifying toaster notification for run initiation
2024-01-10 14-48-40 Waiting for Tableau run to complete (timeout: 800000 milliseconds)
2024-01-10 14-48-40 TC-0001_Run  Tableau Connection
2024-01-10 14-48-40 Wait: 5000 milliseconds
2024-01-10 14-48-40 Open Menu: Menu opened successfully
2024-01-10 14-48-40 TC-0001_Run  Tableau Connection
2024-01-10 14-48-40 Wait: 5000 milliseconds
2024-01-10 14-48-40 Open Menu: Menu opened successfully
2024-01-10 14-48-40 Clicking on Administrator Settings
2024-01-10 14-48-40 Clicking on Source Connection settings
2024-01-10 14-48-40 Clicking on body
2024-01-10 14-48-40 Clicking on the search connection icon
2024-01-10 14-48-40 Typing connection name in the search field: Tableau_C8
2024-01-10 14-48-40 Selecting the 4th table in the search results
2024-01-10 14-48-40 Initiating Tableau run by clicking on the Run Complete button
2024-01-10 14-48-40 Verifying toaster notification for run initiation
2024-01-10 14-48-40 Waiting for Tableau run to complete (timeout: 800000 milliseconds)
2024-01-10 14-48-40 Add category to whatsNew
2024-01-10 14-48-40 Wait: 5000 milliseconds
2024-01-10 14-48-40 Open Menu: Menu opened successfully
2024-01-10 14-48-40 Clicking on Administrator Settings
2024-01-10 14-48-40 Clicking on Steward Management
2024-01-10 14-48-40 Clicking on Categorized Reports
2024-01-10 14-48-40 TC-001_Verify Links in the Side Panel are displayed properly (ZEN2022-TC-43)
2024-01-10 14-48-40 Wait: 5000 milliseconds
2024-01-10 14-48-40 Open Menu: Menu opened successfully
2024-01-10 14-48-40 Wait: 2000 milliseconds
2024-01-10 14-48-40 Side menu links verified successfully
2024-01-10 14-48-40 Side menu links verified successfully
2024-01-10 14-48-40 Side menu links verified successfully
2024-01-10 14-48-40 Side menu links verified successfully
2024-01-10 14-48-40 Side menu links verified successfully
2024-01-10 14-48-40 Side menu links verified successfully
2024-01-10 14-48-40 Side menu links verified successfully
2024-01-10 14-48-40 Side menu links verified successfully
2024-01-10 14-48-40 Side menu links verified successfully
2024-01-10 14-48-40 TC-0001_Run Complete Tableau ConnectionTC-002_1 Verify clicking on all the links on left nav bar expect Reports (ZEN2022-TC-44)
2024-01-10 14-48-40 Wait: 5000 milliseconds
2024-01-10 14-48-40 Open Menu: Menu opened successfully
2024-01-10 14-48-40 Clicking on navbar link: Categories
2024-01-10 14-48-40 Verifying URL includes: /categories
2024-01-10 14-48-40 Clicking on navbar link: Workflows
2024-01-10 14-48-40 Verifying URL includes: /workflows
2024-01-10 14-48-40 Clicking on navbar link: BI Glossary
2024-01-10 14-48-40 Verifying URL includes: /biglossary
2024-01-10 14-48-40 TC-002_2 Verify clicking Reports and its sub links (ZEN2022-TC-44)
2024-01-10 14-48-40 Wait: 5000 milliseconds
2024-01-10 14-48-40 Open Menu: Menu opened successfully
2024-01-10 14-48-40 Getting the text of all side menu links
2024-01-10 14-48-40 Clicking on navbar link: My Reports
2024-01-10 14-48-40 Verifying URL includes: /myReports
2024-01-10 14-48-40 Clicking on navbar link: Favorites
2024-01-10 14-48-40 Verifying URL includes: /favorites
2024-01-10 14-48-40 Clicking on navbar link: What's New
2024-01-10 14-48-40 Verifying URL includes: /whatsNew
2024-01-10 14-48-40 Clicking on navbar link: Recently Viewed
2024-01-10 14-48-40 Verifying URL includes: /recentlyViewed
2024-01-10 14-48-40 TC-003 Verify performing search for a Report from Search bar (ZEN2022-TC-45)
2024-01-10 14-48-40 Wait: 2000 milliseconds
2024-01-10 14-48-40 Clicking on the global search input field, Clearing the existing text, Typing "Document.docx" into the global search input field
2024-01-10 14-48-40 TC-005 Verify manual upload thumbnail generation
2024-01-10 14-48-40 Wait: 5000 milliseconds
2024-01-10 14-48-40 Open Menu: Menu opened successfully
2024-01-10 14-48-40 Clicking on Administrator Settings
2024-01-10 14-48-40 Clicking on Application Settings
2024-01-10 14-48-40 Clicking on Thumbnail Settings
2024-01-10 14-48-40 Typed Document.docx in the search input for thumbnail settings
2024-01-10 14-48-40 Verified that the search card has the expected text
2024-01-10 14-48-40 Selected file at path: C:\Users\Ankitha\cypressautomation\cypress\fixtures\companylogo.svg
2024-01-10 14-48-40 Clicked on "Upload Thumbnail Images" button
2024-01-10 14-48-40 Verified that the state column contains "Admin Uploaded"
2024-01-10 14-48-40 TC-014_Verify Creating a WF and share the WF with some user and see if the email is sent out
2024-01-10 14-48-40 Wait: 2000 milliseconds
2024-01-10 14-48-40 Clicking on the global search input field, Clearing the existing text, Typing "Document.docx" into the global search input field
Click on searched first report: Document.docx
2024-01-10 14-48-40 Clicking on save Button
2024-01-10 14-48-40 Clicking on next Button
2024-01-10 14-48-40 Type Test_WF_New_123 to save workflow
2024-01-10 14-48-40 TC-014_Verify Creating a WF and share the WF with some user and see if the email is sent out
2024-01-10 14-48-40 Wait: 2000 milliseconds
2024-01-10 14-48-40 Clicking on the global search input field, Clearing the existing text, Typing "Document.docx" into the global search input field
Click on searched first report: Document.docx
2024-01-10 14-48-40 Clicking on save Button
2024-01-10 14-48-40 Clicking on next Button
2024-01-10 14-48-40 Type Test_WF_New_123 to save workflow
2024-01-10 14-48-40 TC-018 Verify if you are able to see data on Report Stats for Zenoptics & Backend Stats
2024-01-10 14-48-40 Wait: 5000 milliseconds
2024-01-10 14-48-40 Open Menu: Menu opened successfully
2024-01-10 14-48-40 Getting the text of all side menu links
2024-01-10 14-48-40 Verify Report is available under usage count
2024-01-10 14-48-40 Verify searching and opening report
2024-01-10 14-48-40 TC-019 Verfiy the multiview functionality
2024-01-10 14-48-40 Wait: 5000 milliseconds
2024-01-10 14-48-40 Open Menu: Menu opened successfully
2024-01-10 14-48-40 Verify Report is opened in multiview
2024-01-10 14-48-40 Clicking on grid view
2024-01-10 14-48-40 Verify Gridview container exist
2024-01-10 14-48-40 Open report from gridview
2024-01-10 14-48-40 Clicking on back
2024-01-10 14-48-40 Open report from gridview
2024-01-10 14-48-40 Clicking on back
2024-01-10 14-48-40 Clicking on multiview button
2024-01-10 14-48-40 Clicking on multiview enabled button
2024-01-10 14-48-40 Verifying the existence of the split view
2024-01-10 14-48-40 Verifying the number of reports in split view
2024-01-10 14-48-40 Clicking on the single view button
2024-01-10 14-48-40 Verifying the existence of the single view
2024-01-10 14-48-40 Verifying the number of reports in single view
2024-01-10 14-48-40 TC-020 Verify favoriting a report
2024-01-10 14-48-40 Wait: 2000 milliseconds
2024-01-10 14-48-40 Clicking on the global search input field, Clearing the existing text, Typing "Document.docx" into the global search input field
Click on searched first report: Document.docx
2024-01-10 14-48-40 Finding report header and navigating to the first child mat-icon
2024-01-10 14-48-40 Checking if the mat-tooltip attribute is "Unfavorite
2024-01-10 14-48-40 Clicking on Unfavourite report 
2024-01-10 14-48-40 Clicking on favourite report 
2024-01-10 14-48-40 TC-022 Email report link and verify if it can be sent to the people added in recipients field
2024-01-10 14-48-40 Wait: 2000 milliseconds
2024-01-10 14-48-40 Clicking on the global search input field, Clearing the existing text, Typing "Document.docx" into the global search input field
Click on searched first report: Document.docx
2024-01-10 14-48-40 Clicking on send Email icon
2024-01-10 14-48-40 Type Email ID to send
2024-01-10 14-48-40 Type email message 'please find below your report'
2024-01-10 14-48-40 Click on send email button
2024-01-10 14-48-40 TC-024 Verify extractor scheduling functionality
2024-01-10 14-48-40 Wait: 5000 milliseconds
2024-01-10 14-48-40 Open Menu: Menu opened successfully
2024-01-10 14-48-40 Clicking on Administrator Settings
2024-01-10 14-48-40 Clicking on Source Connection settings
2024-01-10 14-48-40 Clicking on body
2024-01-10 14-48-40 Clicking on the search connection button.
2024-01-10 14-48-40 Typing connection name 'Tableau_C8' in the search input.
2024-01-10 14-48-40 Navigating to the third table on the page
2024-01-10 14-48-40 Clicking on the "Schedule Job" button for the first item in the table
2024-01-10 14-48-40 Clicking on the submit button in the user form
2024-01-10 14-48-40 Verifying the existence and text of the toaster notification
2024-01-10 14-48-40 Verifying the text in the scheduler period in the mat-sidenav
2024-01-10 14-48-40 TC-027 Verify Report types page
2024-01-10 14-48-40 Wait: 5000 milliseconds
2024-01-10 14-48-40 Open Menu: Menu opened successfully
2024-01-10 14-48-40 Getting the text of all side menu links
2024-01-10 14-48-40 Wait: 5000 milliseconds
2024-01-10 14-48-40 Open Menu: Menu opened successfully
2024-01-10 14-48-40 TC-028 Verify Categorized Reports page
2024-01-10 14-48-40 Wait: 5000 milliseconds
2024-01-10 14-48-40 Open Menu: Menu opened successfully
2024-01-10 14-48-40 Clicking on Administrator Settings
2024-01-10 14-48-40 Clicking on Steward Management
2024-01-10 14-48-40 Clicking on Categorized Reports
2024-01-10 14-48-40 Select category: QA1
2024-01-10 14-48-40 TC-031 Verify the favorited reports are displayed as "Favorites" in the search result
2024-01-10 14-48-40 Verify favourite icon in Quick search for report Document.docx
2024-01-10 14-48-40 Wait: 2000 milliseconds
2024-01-10 14-48-40 Clicking on the global search input field, Clearing the existing text, Typing "Document.docx" into the global search input field
Click on searched first report: Document.docx
2024-01-10 14-48-40 Finding report header and navigating to the first child mat-icon
2024-01-10 14-48-40 Checking if the mat-tooltip attribute is "Unfavorite
2024-01-10 14-48-40 Clicking on Unfavourite report 
2024-01-10 14-48-40 Clicking on favourite report 
2024-01-10 14-48-40 Wait: 2000 milliseconds
2024-01-10 14-48-40 Clicking on the global search input field, Clearing the existing text, Typing "Document.docx" into the global search input field
2024-01-10 14-48-40 TC-034 Switching between classic and modern dashboard
2024-01-10 14-48-40 Clicking on Profile icon
2024-01-10 14-48-40 Clicking on dashboard setting icon
2024-01-10 14-48-40 Toggle dashboard style
2024-01-10 14-48-40 TC-035 Verify the Experimental flags for dashboard personalization
2024-01-10 14-48-40 Wait: 5000 milliseconds
2024-01-10 14-48-40 Open Menu: Menu opened successfully
2024-01-10 14-48-40 TC-035 Verify the Experimental flags for dashboard personalization
2024-01-10 14-48-40 Wait: 5000 milliseconds
2024-01-10 14-48-40 Open Menu: Menu opened successfully
2024-01-10 14-48-40 TC-038 Verify pinning/unpinning categories from dashboard page
2024-01-10 14-48-40 Clicking on Profile icon
2024-01-10 14-48-40 Clicking on dashboard setting icon
2024-01-10 14-48-40 TC-038 Verify pinning/unpinning categories from dashboard page
2024-01-10 14-48-40 Clicking on Profile icon
2024-01-10 14-48-40 Clicking on dashboard setting icon
2024-01-10 14-48-40 TC-042_2 Verify back button and refresh works in below pages in the application
2024-01-10 14-48-40 Login application: Login Successful
2024-01-10 14-48-40 Wait: 5000 milliseconds
2024-01-10 14-48-40 Open Menu: Menu opened successfully
2024-01-10 14-48-40 Getting the text of all side menu links
2024-01-10 14-48-40 Click side menu link: Workflow
2024-01-10 14-48-40 Wait: 4000 milliseconds
2024-01-10 14-48-40 Navigate: Go back to the dashboard
2024-01-10 14-48-40 Reload page: Page reloaded successfully
2024-01-10 14-48-40 Login application: Login Successful
2024-01-10 14-48-40 Wait: 5000 milliseconds
2024-01-10 14-48-40 Open Menu: Menu opened successfully
2024-01-10 14-48-40 Getting the text of all side menu links
2024-01-10 14-48-40 Click side menu link: Categories
2024-01-10 14-48-40 Wait: 4000 milliseconds
2024-01-10 14-48-40 Navigate: Go back to the dashboard
2024-01-10 14-48-40 Reload page: Page reloaded successfully
2024-01-10 14-48-40 Login application: Login Successful
2024-01-10 14-48-40 Wait: 5000 milliseconds
2024-01-10 14-48-40 Open Menu: Menu opened successfully
2024-01-10 14-48-40 Getting the text of all side menu links
2024-01-10 14-48-40 Click side menu link: BI Glossary
2024-01-10 14-48-40 Wait: 4000 milliseconds
2024-01-10 14-48-40 Navigate: Go back to the dashboard
2024-01-10 14-48-40 Reload page: Page reloaded successfully
2024-01-10 14-48-40 Login application: Login Successful
2024-01-10 14-48-40 Wait: 5000 milliseconds
2024-01-10 14-48-40 Open Menu: Menu opened successfully
2024-01-10 14-48-40 TC-042_2 Verify back button and refresh works in below pages in the application
2024-01-10 14-48-40 Login application: Login Successful
2024-01-10 14-48-40 Wait: 5000 milliseconds
2024-01-10 14-48-40 Open Menu: Menu opened successfully
2024-01-10 14-48-40 Getting the text of all side menu links
2024-01-10 14-48-40 Click side menu link: Workflow
2024-01-10 14-48-40 Wait: 4000 milliseconds
2024-01-10 14-48-40 Navigate: Go back to the dashboard
2024-01-10 14-48-40 Reload page: Page reloaded successfully
2024-01-10 14-48-40 Login application: Login Successful
2024-01-10 14-48-40 Wait: 5000 milliseconds
2024-01-10 14-48-40 Open Menu: Menu opened successfully
2024-01-10 14-48-40 Getting the text of all side menu links
2024-01-10 14-48-40 Click side menu link: Categories
2024-01-10 14-48-40 Wait: 4000 milliseconds
2024-01-10 14-48-40 Navigate: Go back to the dashboard
2024-01-10 14-48-40 Reload page: Page reloaded successfully
2024-01-10 14-48-40 Login application: Login Successful
2024-01-10 14-48-40 Wait: 5000 milliseconds
2024-01-10 14-48-40 Open Menu: Menu opened successfully
2024-01-10 14-48-40 Getting the text of all side menu links
2024-01-10 14-48-40 Click side menu link: BI Glossary
2024-01-10 14-48-40 Wait: 4000 milliseconds
2024-01-10 14-48-40 Navigate: Go back to the dashboard
2024-01-10 14-48-40 Reload page: Page reloaded successfully
2024-01-10 14-48-40 Login application: Login Successful
2024-01-10 14-48-40 Wait: 5000 milliseconds
2024-01-10 14-48-40 Open Menu: Menu opened successfully
