2024-01-09 17-11-39 TC-032_1 Verify Updating a workflow including adding reports
2024-01-09 17-11-38 Wait: 5000 milliseconds
2024-01-09 17-11-38 Open Menu: Menu opened successfully
Opened the menu
2024-01-09 17-11-38 Getting the text of all side menu links
Clicked on side menu link: Workflow
2024-01-09 17-11-38 Click on Home Icon
2024-01-09 17-11-38 Wait: 5000 milliseconds
2024-01-09 17-11-38 Open Menu: Menu opened successfully
2024-01-09 17-11-38 Getting the text of all side menu links
2024-01-09 17-11-38 Wait: 5000 milliseconds
2024-01-09 17-11-38 Open Menu: Menu opened successfully
