2024-01-18 13-55-55 Executing beforeEach hook
2024-01-18 13-56-13 Executing beforeEach hook
2024-01-18 13-56-13 Test suite completed
2024-01-18 13-57-47 Executing beforeEach hook
2024-01-18 13-57-47 Test suite completed
2024-01-18 13-59-13 Executing beforeEach hook
