2024-01-23 10-38-44 Executing beforeEach hook
2024-01-23 10-39-02 Executing beforeEach hook
2024-01-23 10-39-02 TC-038 Verify pinning/unpinning categories from dashboard page
2024-01-23 10-39-02 Clicking on Profile icon
2024-01-23 10-39-02 Clicking on dashboard setting icon
2024-01-23 10-39-02 Test suite completed
2024-01-23 10-43-56 Executing beforeEach hook
2024-01-23 10-43-56 TC-038 Verify pinning/unpinning categories from dashboard page
2024-01-23 10-43-56 Clicking on Profile icon
2024-01-23 10-43-56 Clicking on dashboard setting icon
2024-01-23 10-45-47 Executing beforeEach hook
2024-01-23 10-45-47 TC-038 Verify pinning/unpinning categories from dashboard page
2024-01-23 10-45-47 Clicking on Profile icon
2024-01-23 10-45-47 Clicking on dashboard setting icon
2024-01-23 10-45-47 Test suite completed
2024-01-23 10-50-12 Executing beforeEach hook
2024-01-23 10-50-12 TC-038 Verify pinning/unpinning categories from dashboard page
2024-01-23 10-50-12 Clicking on Profile icon
2024-01-23 10-50-12 Clicking on dashboard setting icon
2024-01-23 10-50-12 Test suite completed
2024-01-23 10-51-42 Executing beforeEach hook
2024-01-23 10-51-42 TC-038 Verify pinning/unpinning categories from dashboard page
2024-01-23 10-51-42 Clicking on Profile icon
2024-01-23 10-51-42 Clicking on dashboard setting icon
2024-01-23 10-51-42 Test suite completed
2024-01-23 10-55-19 Executing beforeEach hook
2024-01-23 10-55-19 TC-038 Verify pinning/unpinning categories from dashboard page
2024-01-23 10-55-19 Clicking on Profile icon
2024-01-23 10-55-19 Clicking on dashboard setting icon
2024-01-23 10-55-19 Test suite completed
2024-01-23 10-58-47 Executing beforeEach hook
2024-01-23 10-58-47 TC-038 Verify pinning/unpinning categories from dashboard page
2024-01-23 10-58-47 Clicking on Profile icon
2024-01-23 10-58-47 Clicking on dashboard setting icon
2024-01-23 10-58-47 Test suite completed
2024-01-23 11-15-28 Executing beforeEach hook
2024-01-23 11-15-40 Executing beforeEach hook
2024-01-23 11-19-03 Executing beforeEach hook
2024-01-23 11-21-13 Executing beforeEach hook
2024-01-23 11-21-12 Clicking on Profile icon
2024-01-23 11-24-24 Executing beforeEach hook
2024-01-23 11-25-43 Executing beforeEach hook
2024-01-23 11-25-43 Executing beforeEach hook
2024-01-23 11-28-32 Executing beforeEach hook
2024-01-23 11-28-32 Executing beforeEach hook
2024-01-23 11-28-31 Wait: 5000 milliseconds
2024-01-23 11-28-31 Open Menu: Menu opened successfully
2024-01-23 11-28-31 Getting the text of all side menu links
2024-01-23 11-29-36 Executing beforeEach hook
2024-01-23 11-29-36 Executing beforeEach hook
2024-01-23 11-31-47 Executing beforeEach hook
2024-01-23 11-33-57 Executing beforeEach hook
2024-01-23 11-33-56 Clicking on Profile icon
