2024-01-23 11-36-57 Executing beforeEach hook
2024-01-23 11-37-23 Executing beforeEach hook
2024-01-23 11-37-23 Test suite completed
2024-01-23 11-42-56 Executing beforeEach hook
2024-01-23 11-44-31 Executing beforeEach hook
2024-01-23 11-47-11 Executing beforeEach hook
2024-01-23 11-47-11 Test suite completed
